Text Mining with R - Silge
…
gutenberg_works(str_detect(author, "Carroll")) #if you only have a partial name

## # A tibble: 31 x 8
##    gutenberg_id title author gutenberg_autho~ language gutenberg_books~ rights
##           <int> <chr> <chr>             <int> <chr>    <chr>            <chr> 
##  1           11 "Ali~ Carro~                7 en       Children's Lite~ Publi~
##  2           12 "Thr~ Carro~                7 en       Children's Lite~ Publi~
##  3           13 "The~ Carro~                7 en       Children's Lite~ Publi~
##  4          620 "Syl~ Carro~                7 en       <NA>             Publi~
##  5          651 "Pha~ Carro~                7 en       <NA>             Publi~
##  6         4763 "The~ Carro~                7 en       Philosophy       Publi~
##  7         5994 "Our~ Carro~             1906 en       Psychology       Publi~
##  8        16861 "The~ Goodw~             6978 en       <NA>             Publi~
##  9        19002 "Ali~ Carro~                7 en       Children's Lite~ Publi~
## 10        23160 "Sol~ Carro~            25719 en       Science Fiction  Publi~
## # ... with 21 more rows, and 1 more variable: has_text <lgl>

For more Gutenberg search options: https://ropensci.org/tutorials/gutenbergr_tutorial/

Once you found your books, download with gutenberg_download:

fairytales_raw <- gutenberg_download(c(11, 2591, 1597))

## Determining mirror for Project Gutenberg from http://www.gutenberg.org/robot/harvest

## Using mirror http://aleph.gutenberg.org

fairytales_raw

## # A tibble: 18,321 x 2
##    gutenberg_id text                                
##           <int> <chr>                               
##  1           11 "ALICE'S ADVENTURES IN WONDERLAND"  
##  2           11 ""                                  
##  3           11 "Lewis Carroll"                     
##  4           11 ""                                  
##  5           11 "THE MILLENNIUM FULCRUM EDITION 3.0"
##  6           11 ""                                  
##  7           11 ""                                  
##  8           11 ""                                  
##  9           11 ""                                  
## 10           11 "CHAPTER I. Down the Rabbit-Hole"   
## # ... with 18,311 more rows
…
unnest_tokens() automatically removes punctuation and converts to lowercase (unless you set to_lower = FALSE)

by default, tokens are set to words, but you can also use token = “characters”, “ngrams”, “sentences”, “lines”, “regex”, “paragraphs”, and even “tweets” (which will retain usernames, hashtags, and URLs)

fairytales_tidy <- fairytales_raw %>% 
  unnest_tokens(word, text)

# this keeps the information on which sentence the words came from
fairytales_raw %>% 
  unnest_tokens(sentence, text, token = "sentences") %>% 
  mutate(sent_nr = row_number()) %>% 
  unnest_tokens(word, sentence)

## # A tibble: 184,459 x 3
##    gutenberg_id                     sent_nr word      
##    <fct>                              <int> <chr>     
##  1 Alice's Adventures in Wonderland       1 alice's   
##  2 Alice's Adventures in Wonderland       1 adventures
##  3 Alice's Adventures in Wonderland       1 in        
##  4 Alice's Adventures in Wonderland       1 wonderland
##  5 Alice's Adventures in Wonderland       1 lewis     
##  6 Alice's Adventures in Wonderland       1 carroll   
##  7 Alice's Adventures in Wonderland       1 the       
##  8 Alice's Adventures in Wonderland       1 millennium
##  9 Alice's Adventures in Wonderland       1 fulcrum   
## 10 Alice's Adventures in Wonderland       1 edition   
## # ... with 184,449 more rows

fairytales_tidy

## # A tibble: 184,459 x 2
##    gutenberg_id                     word      
##    <fct>                            <chr>     
##  1 Alice's Adventures in Wonderland alice's   
##  2 Alice's Adventures in Wonderland adventures
##  3 Alice's Adventures in Wonderland in        
##  4 Alice's Adventures in Wonderland wonderland
##  5 Alice's Adventures in Wonderland lewis     
##  6 Alice's Adventures in Wonderland carroll   
##  7 Alice's Adventures in Wonderland the       
##  8 Alice's Adventures in Wonderland millennium
##  9 Alice's Adventures in Wonderland fulcrum   
## 10 Alice's Adventures in Wonderland edition   
## # ... with 184,449 more rows
…
2.3 Stop words

Stop words: very common, “meaningless” function words like “the”, “of” and “to” – not usually important in an analysis (i.e. to find out that the most common word in two books you are comparing is “the”)

tidytext has a built-in df called stop_words for English

remove these from your dataset with anti_join

We can take a look:

stop_words

## # A tibble: 1,149 x 2
##    word        lexicon
##    <chr>       <chr>  
##  1 a           SMART  
##  2 a's         SMART  
##  3 able        SMART  
##  4 about       SMART  
##  5 above       SMART  
##  6 according   SMART  
##  7 accordingly SMART  
##  8 across      SMART  
##  9 actually    SMART  
## 10 after       SMART  
## # ... with 1,139 more rows

fairytales_tidy <- fairytales_tidy %>% 
  anti_join(stop_words)

## Joining, by = "word"

fairytales_tidy

## # A tibble: 54,511 x 2
##    gutenberg_id                     word      
##    <fct>                            <chr>     
##  1 Alice's Adventures in Wonderland alice's   
##  2 Alice's Adventures in Wonderland adventures
##  3 Alice's Adventures in Wonderland wonderland
##  4 Alice's Adventures in Wonderland lewis     
##  5 Alice's Adventures in Wonderland carroll   
##  6 Alice's Adventures in Wonderland millennium
##  7 Alice's Adventures in Wonderland fulcrum   
##  8 Alice's Adventures in Wonderland edition   
##  9 Alice's Adventures in Wonderland <NA>      
## 10 Alice's Adventures in Wonderland chapter   
## # ... with 54,501 more rows
…
Easily find frequent words using count()

Data must be in tidy format (one token per line)

sort = TRUE to show the most frequent words first

tidy_books %>% count(word, sort = TRUE)

fairytales_freq <- fairytales_tidy %>% 
  group_by(gutenberg_id) %>% #including this ensures that the counts are by book and the id column is retained
  count(word, sort=TRUE)

fairytales_freq

## # A tibble: 11,214 x 3
## # Groups:   gutenberg_id [3]
##    gutenberg_id                     word       n
##    <fct>                            <chr>  <int>
##  1 Alice's Adventures in Wonderland alice    386
##  2 Grimm's Fairytales               king     278
##  3 Grimm's Fairytales               time     207
##  4 Grimm's Fairytales               day      191
##  5 Grimm's Fairytales               home     180
##  6 Grimm's Fairytales               father   161
##  7 Grimm's Fairytales               cried    153
##  8 Grimm's Fairytales               wife     150
##  9 Grimm's Fairytales               mother   144
## 10 Grimm's Fairytales               door     143
## # ... with 11,204 more rows

shakes_freq <- shakes_unnest %>% 
  group_by(doc_id) %>% 
  count(word, sort = TRUE)

Reminder: filter can be used to look at subsets of the data, i.e. one book, all words with freq above 100, etc. (Note here that I don’t save this output)

fairytales_tidy %>% 
  group_by(gutenberg_id) %>% 
  count(word, sort=TRUE) %>% 
  filter(gutenberg_id == "Grimm's Fairytales")

## # A tibble: 4,369 x 3
## # Groups:   gutenberg_id [1]
##    gutenberg_id       word       n
##    <fct>              <chr>  <int>
##  1 Grimm's Fairytales king     278
##  2 Grimm's Fairytales time     207
##  3 Grimm's Fairytales day      191
##  4 Grimm's Fairytales home     180
##  5 Grimm's Fairytales father   161
##  6 Grimm's Fairytales cried    153
##  7 Grimm's Fairytales wife     150
##  8 Grimm's Fairytales mother   144
##  9 Grimm's Fairytales door     143
## 10 Grimm's Fairytales fell     130
## # ... with 4,359 more rows
…
shakes_freq <- shakes_freq %>% 
  na.omit() %>% 
  group_by(doc_id) %>% 
  mutate(pmw = n*1000000/sum(n)) %>% # creates a new column called pmw
  ungroup() %>% 
  anti_join(stop_words) # removing stopwords afterwards

## Joining, by = "word"

shakes_freq %>% select(word, pmw)

## # A tibble: 44,244 x 2
##    word        pmw
##    <chr>     <dbl>
##  1 brutus   17168.
##  2 ham      11187.
##  3 iago     12410.
##  4 romeo    11420.
##  5 thou     10648.
##  6 rosalind 11399.
##  7 king      8216.
##  8 king      9271.
##  9 lord      7395.
## 10 caesar   10985.
## # ... with 44,234 more rows
…
input: format needs to be one row per token (term), per document

one column (here: word) contains the terms/tokens

one column (here: gutenberg_id) contains the documents

fairytales_idf <- fairytales_freq %>% 
  bind_tf_idf(word, gutenberg_id, n)

fairytales_idf %>%
  select(gutenberg_id, word, tf_idf) %>% 
  arrange(desc(tf_idf))

## # A tibble: 11,214 x 3
## # Groups:   gutenberg_id [3]
##    gutenberg_id                         word      tf_idf
##    <fct>                                <chr>      <dbl>
##  1 Alice's Adventures in Wonderland     alice    0.0557 
##  2 Alice's Adventures in Wonderland     mock     0.00808
##  3 Alice's Adventures in Wonderland     gryphon  0.00793
##  4 Alice's Adventures in Wonderland     hatter   0.00793
##  5 Hans Christian Anderson's Fairytales gerda    0.00720
##  6 Alice's Adventures in Wonderland     rabbit   0.00678
##  7 Alice's Adventures in Wonderland     dormouse 0.00563
##  8 Alice's Adventures in Wonderland     duchess  0.00563
##  9 Hans Christian Anderson's Fairytales shadow   0.00537
## 10 Hans Christian Anderson's Fairytales kay      0.00454
## # ... with 11,204 more rows
…
show words with the highest tf_idf

alice <- alice %>% 
  group_by(chapter) %>% 
  count(word, sort = TRUE)

alice_idf <- alice %>% 
  bind_tf_idf(word, chapter, n)

alice_idf %>%
  select(chapter, word, tf_idf) %>% 
  arrange(desc(tf_idf))

## # A tibble: 4,304 x 3
## # Groups:   chapter [12]
##    chapter word        tf_idf
##    <fct>   <chr>        <dbl>
##  1 7       dormouse    0.0699
##  2 7       hatter      0.0666
##  3 5       caterpillar 0.0622
##  4 10      turtle      0.0603
##  5 10      mock        0.0582
##  6 9       turtle      0.0549
##  7 5       pigeon      0.0535
##  8 9       mock        0.0528
##  9 10      gryphon     0.0511
## 10 11      hatter      0.0497
## # ... with 4,294 more rows
…
